{
  "phase1-norad" : { 
    "name": "High-E/low-t",
    "radiator": "OUT",
    "target": "LH2",
    "hms_angle": 19.1,
    "hms_momentum": 4.95,
    "shms_angle": 17.0,
    "shms_momentum": -4.835,
    "charge_goal": 250.0
  },
  "phase1-dummy": { 
    "name": "High-E/low-t",
    "radiator": "IN",
    "target": "DUMMY",
    "hms_angle": 19.1,
    "hms_momentum": 4.95,
    "shms_angle": 17.0,
    "shms_momentum": -4.835,
    "charge_goal": 593.0
  },
  "phase1": { 
    "name": "High-E/low-t",
    "radiator": "IN",
    "target": "LH2",
    "hms_angle": 19.1,
    "hms_momentum": 4.95,
    "shms_angle": 17.0,
    "shms_momentum": -4.835,
    "charge_goal": 4410.0
  },
  "phase2-dummy": { 
    "name": "Low-E/low-t",
    "radiator": "IN",
    "target": "DUMMY",
    "hms_angle": 19.9,
    "hms_momentum": 4.6,
    "shms_angle": 20.1,
    "shms_momentum": -4.3,
    "charge_goal": 1219.0
  },
  "phase2": { 
    "name": "Low-E/low-t",
    "radiator": "IN",
    "target": "LH2",
    "hms_angle": 19.9,
    "hms_momentum": 4.6,
    "shms_angle": 20.1,
    "shms_momentum": -4.3,
    "charge_goal": 9060.0
  },
  "phase3": { 
    "name": "High-t",
    "radiator": "IN",
    "target": "LH2",
    "hms_angle": 16.4,
    "hms_momentum": 4.08,
    "shms_angle": 30.0,
    "shms_momentum": -3.5,
    "charge_goal": 36288.0
  },
  "phase4": { 
    "name": "Medium-t",
    "radiator": "IN",
    "target": "LH2",
    "hms_angle": 16.5,
    "hms_momentum": 4.4,
    "shms_angle": 24.5,
    "shms_momentum": -4.4,
    "charge_goal": 12096.0
  }
}
